module gitlab.com/medblocks/hyperledgerchaincode

go 1.13

require (
	github.com/Knetic/govaluate v3.0.0+incompatible // indirect
	github.com/Shopify/sarama v1.23.1 // indirect
	github.com/fsouza/go-dockerclient v1.4.4 // indirect
	github.com/grpc-ecosystem/go-grpc-middleware v1.1.0 // indirect
	github.com/hashicorp/go-version v1.2.0 // indirect
	github.com/hyperledger/fabric v1.4.3
	github.com/hyperledger/fabric-amcl v0.0.0-20190902191507-f66264322317 // indirect
	github.com/miekg/pkcs11 v1.0.3 // indirect
	github.com/onsi/ginkgo v1.10.2 // indirect
	github.com/onsi/gomega v1.7.0 // indirect
	github.com/op/go-logging v0.0.0-20160315200505-970db520ece7 // indirect
	github.com/spf13/viper v1.4.0 // indirect
	github.com/sykesm/zap-logfmt v0.0.2 // indirect
	golang.org/x/crypto v0.0.0-20191002192127-34f69633bfdc // indirect
	golang.org/x/net v0.0.0-20191003171128-d98b1b443823 // indirect
	google.golang.org/grpc v1.24.0 // indirect
	gopkg.in/jcmturner/goidentity.v3 v3.0.0 // indirect
	gopkg.in/yaml.v2 v2.2.4 // indirect
)
